{
  "id": "73029b75-b464-421d-9c60-427afb539045",
  "name": "Marchall & Lilly 2019",
  "productConfig": "https://s3.lifestory-test/example/test/v123123",
  "layout": [
    [{ "template": 0 }],
    [
      { "template": 0 },
      { "template": 0 },
      { "template": 1 },
      { "template": 0 },
      { "template": 3 },
      { "template": 0 },
      { "template": 0 },
      { "template": 0 },
      { "template": 0 },
      { "template": 2 },
      { "template": 0 },
      { "template": 0 },
      { "template": 1 },
      { "template": 0 },
      { "template": 0 },
      { "template": 0 },
      { "template": 2 },
      { "template": 0 },
      { "template": 0 },
      { "template": 0 },
      { "template": 0 },
      { "template": 4 },
      { "template": 0 },
      { "template": 0 },
      { "template": 0 },
      { "template": 1 },
      { "template": 0 },
      { "template": 1 },
      { "template": 0 },
      { "template": 0 },
      { "template": 0 },
      { "template": 0 },
      { "template": 0 },
      { "template": 0 },
      { "template": 0 },
      { "template": 0 },
      { "template": 0 },
      { "template": 0 },
      { "template": 0 },
      { "template": 0 },
      { "template": 0 }
    ]
  ],
  "assets": [
    {
      "type": "text",
      "context": "title",
      "content": "LifeStory"
    },
    {
      "type": "text",
      "context": "spine",
      "content": "LifeStory"
    },
    {
      "type": "image",
      "content": "http://lorempixel.com/600/600/cats/1/"
    },
    {
      "type": "image",
      "content": "http://lorempixel.com/600/600/cats/2/"
    },
    {
      "type": "image",
      "content": "http://lorempixel.com/600/600/cats/3/"
    },
    {
      "type": "image",
      "content": "http://lorempixel.com/600/600/cats/4/"
    },
    {
      "type": "image",
      "content": "http://lorempixel.com/600/600/cats/5/"
    },
    {
      "type": "image",
      "content": "http://lorempixel.com/600/600/cats/6/"
    },
    {
      "type": "image",
      "content": "http://lorempixel.com/600/600/cats/7/"
    },
    {
      "type": "image",
      "content": "http://lorempixel.com/600/600/cats/8/"
    },
    {
      "type": "image",
      "content": "http://lorempixel.com/600/600/cats/9/"
    },
    {
      "type": "image",
      "content": "http://lorempixel.com/600/600/cats/10/"
    },
    {
      "type": "image",
      "content": "http://lorempixel.com/600/600/cats/11/"
    },
    {
      "type": "image",
      "content": "http://lorempixel.com/600/600/cats/12/"
    },
    {
      "type": "image",
      "content": "http://lorempixel.com/600/600/cats/13/"
    },
    {
      "type": "image",
      "content": "http://lorempixel.com/600/600/cats/14/"
    },
    {
      "type": "image",
      "content": "http://lorempixel.com/600/600/cats/15/"
    },
    {
      "type": "image",
      "content": "http://lorempixel.com/600/600/cats/16/"
    },
    {
      "type": "image",
      "content": "http://lorempixel.com/600/600/cats/17/"
    },
    {
      "type": "image",
      "content": "http://lorempixel.com/600/600/cats/18/"
    },
    {
      "type": "image",
      "content": "http://lorempixel.com/600/600/cats/19/"
    },
    {
      "type": "image",
      "content": "http://lorempixel.com/600/600/cats/20/"
    },
    {
      "type": "image",
      "content": "http://lorempixel.com/600/600/cats/21/"
    },
    {
      "type": "image",
      "content": "http://lorempixel.com/600/600/cats/22/"
    },
    {
      "type": "image",
      "content": "http://lorempixel.com/600/600/cats/23/"
    },
    {
      "type": "image",
      "content": "http://lorempixel.com/600/600/cats/24/"
    },
    {
      "type": "image",
      "content": "http://lorempixel.com/600/600/cats/25/"
    },
    {
      "type": "image",
      "content": "http://lorempixel.com/600/600/cats/26/"
    },
    {
      "type": "image",
      "content": "http://lorempixel.com/600/600/cats/27/"
    },
    {
      "type": "image",
      "content": "http://lorempixel.com/600/600/cats/28/"
    },
    {
      "type": "image",
      "content": "http://lorempixel.com/600/600/cats/29/"
    },
    {
      "type": "image",
      "content": "http://lorempixel.com/600/600/cats/30/"
    },
    {
      "type": "image",
      "content": "http://lorempixel.com/600/600/cats/31/"
    },
    {
      "type": "image",
      "content": "http://lorempixel.com/600/600/cats/32/"
    },
    {
      "type": "image",
      "content": "http://lorempixel.com/600/600/cats/33/"
    },
    {
      "type": "image",
      "content": "http://lorempixel.com/600/600/cats/34/"
    },
    {
      "type": "image",
      "content": "http://lorempixel.com/600/600/cats/35/"
    },
    {
      "type": "image",
      "content": "http://lorempixel.com/600/600/cats/36/"
    },
    {
      "type": "image",
      "content": "http://lorempixel.com/600/600/cats/37/"
    },
    {
      "type": "image",
      "content": "http://lorempixel.com/600/600/cats/38/"
    },
    {
      "type": "image",
      "content": "http://lorempixel.com/600/600/cats/39/"
    },
    {
      "type": "image",
      "content": "http://lorempixel.com/600/600/cats/40/"
    }
  ]
}
